<?xml version="1.0" encoding="UTF-8" standalone="no"?>
<!-- Created with Inkscape (http://www.inkscape.org/) -->

<svg
   xmlns:dc="http://purl.org/dc/elements/1.1/"
   xmlns:cc="http://creativecommons.org/ns#"
   xmlns:rdf="http://www.w3.org/1999/02/22-rdf-syntax-ns#"
   xmlns:svg="http://www.w3.org/2000/svg"
   xmlns="http://www.w3.org/2000/svg"
   xmlns:sodipodi="http://sodipodi.sourceforge.net/DTD/sodipodi-0.dtd"
   xmlns:inkscape="http://www.inkscape.org/namespaces/inkscape"
   width="720"
   height="576"
   id="svg3647"
   version="1.1"
   inkscape:version="0.92.4 5da689c313, 2019-01-14"
   viewBox="0 0 720 576"
   sodipodi:docname="logo.svg">
  <defs
     id="defs3649" />
  <sodipodi:namedview
     id="base"
     pagecolor="#ffffff"
     bordercolor="#666666"
     borderopacity="1.0"
     inkscape:pageopacity="0.0"
     inkscape:pageshadow="2"
     inkscape:zoom="1.2"
     inkscape:cx="403.57576"
     inkscape:cy="286.78448"
     inkscape:document-units="px"
     inkscape:current-layer="layer1"
     showgrid="false"
     inkscape:window-width="1920"
     inkscape:window-height="1055"
     inkscape:window-x="0"
     inkscape:window-y="410"
     inkscape:window-maximized="1" />
  <metadata
     id="metadata3652">
    <rdf:RDF>
      <cc:Work
         rdf:about="">
        <dc:format>image/svg+xml</dc:format>
        <dc:type
           rdf:resource="http://purl.org/dc/dcmitype/StillImage" />
        <dc:title />
      </cc:Work>
    </rdf:RDF>
  </metadata>
  <g
     id="layer1"
     inkscape:label="Layer 1"
     inkscape:groupmode="layer">
    <path
       inkscape:connector-curvature="0"
       style="fill:#010101"
       d="m 28.423765,52.255306 c 28.019375,1.505993 56.084088,3.614383 84.148805,1.317744 5.93938,12.612692 1.76821,26.430178 3.6271,39.569968 4.39787,37.122732 -11.24402,72.701812 -17.183403,109.033892 -8.070305,45.10449 -24.165577,89.60659 -24.43761,135.46407 -1.314825,12.91389 16.593999,9.29951 24.845659,4.70623 -0.04534,-9.56306 -7.11819,-20.21796 -1.49618,-29.17862 8.931744,-3.57673 19.132974,-3.27553 28.155394,-0.1506 -1.31483,22.8911 6.61946,46.04574 0.49873,68.59799 -28.563446,-0.6024 -57.126887,-0.71535 -85.508972,2.10839 C 37.400846,365.916 33.819081,347.58053 39.169059,329.77216 52.68002,274.84108 62.246505,219.38288 71.631636,163.88704 75.077384,141.22184 85.278612,119.46025 86.14005,96.493852 81.878203,89.152136 67.460467,88.662688 59.344822,91.900573 c -3.989813,10.391357 1.677536,21.535697 1.541519,32.265907 -9.793179,0.0376 -19.586359,0.26354 -29.379538,0.71534 C 24.11658,101.27538 26.791568,76.351195 28.423765,52.255306 Z"
       id="path14" />
    <path
       style="fill:#010101"
       d="M 541.24414 203.32422 C 535.52215 203.21723 529.66023 203.85701 524.47461 204.54883 C 509.01408 207.48552 498.85934 218.3658 490.1543 228.53125 C 494.73351 232.22093 500.49172 235.30865 503.30273 240.20312 C 504.93492 250.89567 487.88631 257.44745 491.9668 268.5918 C 496.41 270.73784 501.12643 272.54446 506.06836 273.9375 C 504.30015 283.04876 508.15321 292.04708 520.80273 291.89648 C 521.30146 286.58785 521.75601 281.31644 522.16406 276.00781 C 574.48503 280.18694 626.66856 286.02251 678.85352 290.57812 C 680.03232 285.38245 682.16395 278.68083 674.95508 275.74414 C 648.52256 262.7926 616.10546 273.1467 588.49414 263.4707 C 573.89505 258.65152 558.29771 256.91956 542.70117 256.12891 C 542.11176 238.69704 571.40141 231.31747 564.91797 213.2832 C 559.9307 205.75324 550.78079 203.50254 541.24414 203.32422 z M 540.16211 217.42578 C 540.9782 229.85022 531.36643 241.82124 517.85547 246.79102 C 510.0572 243.40253 507.88057 233.27559 511.73438 227.13867 C 519.39663 221.00175 529.77952 218.25408 540.16211 217.42578 z "
       id="path16" />
    <path
       style="fill:#010101"
       d="M 444.0625 205.61328 C 441.01419 205.5198 437.89667 206.42011 434.97656 208.72852 C 421.37493 224.01435 426.54319 250.85738 401.24414 257.93555 C 401.78821 264.48661 402.65059 271.00132 404.32812 277.43945 C 395.62307 270.70013 382.83771 267.46257 377.75977 257.82422 C 371.09496 247.65876 361.98144 235.08236 346.1582 235.19531 C 331.15106 243.02647 334.05283 259.89343 325.12109 271.26367 C 316.144 272.31787 308.25478 275.55717 305.39844 283.27539 C 309.16156 285.64733 312.97042 287.98016 316.82422 290.31445 C 313.6505 296.18782 312.69732 302.25013 313.9668 308.5 C 326.66166 302.40073 329.20163 285.76039 345.93164 285.30859 C 354.04729 283.99084 362.34322 282.93567 370.68555 283.19922 C 382.02025 288.62079 379.61861 306.91843 396.03125 305.52539 C 410.31297 299.91556 408.77109 283.87635 413.48633 273.0332 C 430.94176 265.84208 463.67634 262.37833 471.47461 281.4668 C 468.3009 283.01044 461.90809 286.17456 458.73438 287.75586 C 468.79958 300.48149 487.66038 292.42426 498.04297 284.36719 C 490.92477 276.76193 482.94498 269.64612 477.45898 261.09961 C 467.48445 248.29867 471.83795 231.73171 461.63672 218.85547 C 459.19267 212.57736 451.85264 205.85218 444.0625 205.61328 z M 436.47266 231.95703 C 441.14256 238.92225 445.54005 246.03902 449.89258 253.11719 C 441.05151 253.71958 432.21021 253.98296 423.36914 253.94531 C 426.13481 246.03885 429.94388 238.28221 436.47266 231.95703 z M 346.78906 262.33789 C 351.29118 262.15268 352.61506 264.48834 350.73633 269.38281 C 343.39145 271.0394 340.85374 268.85546 343.16602 262.86914 C 344.54318 262.55853 345.75011 262.38063 346.78906 262.33789 z "
       id="path18" />
    <path
       style="fill:#010101"
       d="M 184.20898 236.59961 C 173.16419 236.69853 163.11168 243.05691 151.56445 243.96875 C 137.55476 252.81646 117.78747 256.69353 108.40234 269.60742 C 109.12776 279.35873 115.88135 288.65878 121.77539 297.05469 C 139.82023 306.88129 157.95621 295.32201 174.1875 288.80859 C 193.32047 277.43835 201.34502 256.80745 193.77344 238.24609 C 190.47079 237.03542 187.30153 236.57191 184.20898 236.59961 z M 176.82031 253.98438 C 174.78006 272.84693 149.0718 283.65326 128.30664 282.63672 C 130.89095 263.77415 156.28183 254.43618 176.82031 253.98438 z "
       id="path24" />
    <path
       inkscape:connector-curvature="0"
       style="fill:#010101"
       d="m 211.27512,255.97851 c 6.0754,-6.88991 20.76517,-5.00742 24.98168,2.59784 5.48599,8.35826 13.51096,15.09758 23.98422,19.23906 4.80591,-7.45466 7.7076,-15.73762 13.14825,-22.92874 7.16353,-5.98632 20.58381,-3.27554 25.75245,3.46378 2.08558,15.43643 -2.04026,31.28701 3.71778,46.42223 4.76057,10.61725 -13.82834,11.8597 -20.81052,6.66402 -6.93683,-3.57673 -6.03006,-11.0314 -7.88895,-16.75416 -6.0754,0.26354 -12.10546,1.05419 -18.04484,2.25898 -5.34998,-2.44723 -10.74529,-4.85682 -16.14061,-7.19111 -1.67754,10.54194 0,30.3834 -19.35966,27.55966 -9.24912,-11.59614 -0.58941,-27.07021 -6.98218,-39.72056 -1.49618,-7.11581 -10.11055,-15.13523 -2.35762,-21.611 z"
       id="path26" />
    <path
       style="fill:#010101"
       d="M 581.33203 319.92383 C 520.825 319.69412 460.46377 323.13429 400.02148 325.2168 C 323.53494 329.69713 246.86546 325.21654 170.37891 328.22852 C 169.47214 329.05682 167.70518 330.67561 166.84375 331.50391 C 165.12087 354.88445 170.92443 378.00139 171.92188 401.30664 C 173.55407 426.30612 170.10833 451.34426 171.92188 476.34375 C 263.14352 476.6826 354.31937 475.66589 445.54102 475.40234 C 480.31588 474.2352 515.22723 475.02617 549.77539 471.29883 C 567.09481 469.11514 586.13603 474.76077 602.14062 467.34375 C 595.97455 445.7704 597.4714 423.59633 597.60742 401.64648 C 598.60487 374.35036 595.33978 347.20465 593.43555 320.02148 C 589.40039 319.97207 585.36583 319.93914 581.33203 319.92383 z M 559.92969 358.98828 C 566.77585 381.84172 565.50751 405.5243 564.69141 428.86719 C 554.26349 436.9619 536.44567 432.74488 523.02539 434.32617 C 477.77727 427.32331 432.21075 420.77088 387.41602 411.69727 C 356.90301 410.19127 327.79611 402.21117 298.14453 396.75195 C 276.74462 392.61047 254.89027 390.65281 233.26367 387.49023 C 231.08741 395.09549 230.40851 402.92524 231.22461 410.71875 C 244.4182 411.0576 257.7467 408.87523 270.84961 411.17188 C 270.66825 419.94428 270.71429 428.71533 270.98633 437.52539 C 245.64194 435.68055 219.39115 443.43646 194.9082 436.43359 C 194.40947 418.28638 197.44708 399.83875 192.36914 381.95508 C 190.96363 376.49586 188.65198 367.53433 198.03711 366.36719 C 218.12219 362.79045 239.74875 361.69965 259.42578 367.38477 C 275.43038 372.12865 292.9294 369.94482 308.88867 374.87695 C 357.17448 384.9671 407.45677 387.41345 455.0625 399.83789 C 478.82003 400.70384 501.44365 407.59346 525.20117 408.1582 C 525.24647 401.19299 525.24675 394.26687 525.38281 387.37695 C 513.45871 386.2851 501.44364 386.6985 489.51953 387.56445 C 489.33818 378.90499 488.97599 370.28392 488.61328 361.66211 C 511.73606 354.92279 536.30818 364.03336 559.92969 358.98828 z "
       id="path32" />
  </g>
</svg>
